Over-representation analysis - Microarray
…
read_tsv() can read TSV files online and doesnt necessarily require you download the file first. Lets take a look at what these contrast results from the differential expression analysis look like.

dge_df

## # A tibble: 9,226 x 7
##    Gene                logFC AveExpr     t       P.Value adj.P.Val     B
##    <chr>               <dbl>   <dbl> <dbl>         <dbl>     <dbl> <dbl>
##  1 ENSDARG00000104315  0.980   0.562  20.2 0.00000000297 0.0000274 11.0 
##  2 ENSDARG00000101341 -0.651   1.01  -15.9 0.0000000290  0.000134   9.31
##  3 ENSDARG00000034503  0.922   0.652  14.5 0.0000000684  0.000188   8.59
##  4 ENSDARG00000014945  0.570   0.776  13.9 0.000000101   0.000188   8.26
##  5 ENSDARG00000019113 -0.620   0.864 -13.9 0.000000102   0.000188   8.26
##  6 ENSDARG00000005799 -0.938   1.11  -12.5 0.000000265   0.000365   7.42
##  7 ENSDARG00000028396  2.10    1.20   12.5 0.000000277   0.000365   7.37
##  8 ENSDARG00000035399 -0.570   0.402 -12.0 0.000000387   0.000407   7.07
##  9 ENSDARG00000105096 -2.78    2.59  -12.0 0.000000397   0.000407   7.05
## 10 ENSDARG00000043531  0.866   0.653  11.2 0.000000703   0.000649   6.53
## #  with 9,216 more rows
…
